[gd_scene load_steps=2 format=2]

[ext_resource path="res://src/fonts/fields_labels_font1.tres" type="DynamicFont" id=1]

[node name="Field0Label" type="Label"]
margin_right = 400.0
margin_bottom = 31.0
rect_min_size = Vector2( 400, 0 )
custom_fonts/font = ExtResource( 1 )
text = "Field0"
